[gd_scene load_steps=2 format=2]

[ext_resource path="res://Scripts/Level Button.gd" type="Script" id=1]

[node name="TextureButton" type="TextureButton"]
anchor_right = 0.15625
anchor_bottom = 0.277778
margin_right = -160.0
margin_bottom = -160.0
script = ExtResource( 1 )
__meta__ = {
"_edit_use_anchors_": false
}

[node name="TextureRect" type="TextureRect" parent="."]
anchor_left = 0.794298
anchor_top = -0.206601
anchor_right = 1.2743
anchor_bottom = 0.273399
margin_right = -81.0
margin_bottom = -69.3333
__meta__ = {
"_edit_use_anchors_": true
}
[connection signal="pressed" from="." to="." method="_on_TextureButton_pressed"]
