; Engine configuration file.
; It's best edited using the editor UI and not directly,
; since the parameters that go here are not all obvious.
;
; Format:
;   [section] ; section goes between []
;   param=value ; assign values to parameters

config_version=4

_global_script_classes=[  ]
_global_script_class_icons={

}

[application]

config/name="Again"
run/main_scene="res://Scenes/Main Menu.tscn"
boot_splash/use_filter=false
config/icon="res://icon.png"

[autoload]

Global="*res://Scripts/Autoload/Global.gd"
State="*res://Scripts/Autoload/State.gd"
MusicPlayer="*res://Scenes/Autoload/MusicPlayer.tscn"
SceneChanger="*res://Scenes/Autoload/Scene Changer.tscn"

[display]

window/size/width=1280
window/size/height=720
window/stretch/mode="2d"

[rendering]

environment/default_environment="res://default_env.tres"
